[{
        "fieldName": "EmployerName",
        "dataType": "text",
        "size": 30,
        "mandatoryField": true
    },
    {
        "fieldName": "StartDate",
        "dataType": "date",
        "size": null,
        "mandatoryField": true
    },
    {
        "fieldName": "EndDate",
        "dataType": "date",
        "size": null,
        "mandatoryField": false
    },
    {
        "fieldName": "Status",
        "dataType": "text",
        "size": 30,
        "mandatoryField": false
    },
    {
        "fieldName": "EmployerType",
        "dataType": "text",
        "size": 30,
        "mandatoryField": false
    },
    {
        "fieldName": "Name",
        "dataType": "text",
        "size": 30,
        "mandatoryField": true
    },
    {
        "fieldName": "City",
        "dataType": "text",
        "size": 30,
        "mandatoryField": false
    },
    {
        "fieldName": "Website",
        "dataType": "text",
        "size": 30,
        "mandatoryField": false
    },
    {
        "fieldName": "Phone",
        "dataType": "number",
        "size": 10,
        "mandatoryField": false
    },
    {
        "fieldName": "Fax",
        "dataType": "number",
        "size": 10,
        "mandatoryField": false
    },
    {
        "fieldName": "Country",
        "dataType": "text",
        "size": 30,
        "mandatoryField": false
    },
    {
        "fieldName": "State",
        "dataType": "text",
        "size": 30,
        "mandatoryField": false
    },
    {
        "fieldName": "ZipCode",
        "dataType": "number",
        "size": 6,
        "mandatoryField": false
    },
    {
        "fieldName": "Email",
        "dataType": "text",
        "size": 50,
        "mandatoryField": true
    }
]