﻿<?xml version="1.0" encoding="UTF-8"?>
<svg width="12px" height="12px" viewBox="0 0 12 12" version="1.1" xmlns="http://www.w3.org/2000/svg" xmlns:xlink="http://www.w3.org/1999/xlink">
    <!-- Generator: Sketch 42 (36781) - http://www.bohemiancoding.com/sketch -->
    <title>ic_registered</title>
    <desc>Created with Sketch.</desc>
    <defs></defs>
    <g id="Symbols" stroke="none" stroke-width="1" fill="none" fill-rule="evenodd">
        <g id="icon/registered" transform="translate(-2.000000, -2.000000)">
            <g id="ic_registered">
                <g id="Icon-24px">
                    <polygon id="Shape" points="0 0 16 0 16 16 0 16"></polygon>
                    <path d="M8,2 C4.688,2 2,4.688 2,8 C2,11.312 4.688,14 8,14 C11.312,14 14,11.312 14,8 C14,4.688 11.312,2 8,2 L8,2 Z M4,7.99790454 L4.846,7.15190454 L7,9.29990454 L10.9289512,5.3500061 L11.7749512,6.2020061 L7,10.9979045 L4,7.99790454 Z" id="Shape" fill="#3E67B4"></path>
                </g>
            </g>
        </g>
    </g>
</svg>