<?xml version="1.0" encoding="UTF-8" standalone="no"?>
<svg width="16px" height="9px" viewBox="0 0 16 9" version="1.1" xmlns="http://www.w3.org/2000/svg" xmlns:xlink="http://www.w3.org/1999/xlink">
    <!-- Generator: Sketch 39.1 (31720) - http://www.bohemiancoding.com/sketch -->
    <title>ic_people_18px</title>
    <desc>Created with Sketch.</desc>
    <defs></defs>
    <g id="VMO" stroke="none" stroke-width="1" fill="none" fill-rule="evenodd" opacity="0.3">
        <g id="Visitors" transform="translate(-478.000000, -404.000000)">
            <g id="ic_people_18px" transform="translate(477.000000, 400.000000)">
                <polygon id="Shape" points="0 0 18 0 18 18 0 18"></polygon>
                <path d="M6,8 C7.11,8 8,7.1 8,6 C8,4.9 7.11,4 6,4 C4.9,4 4,4.9 4,6 C4,7.1 4.9,8 6,8 L6,8 Z M12,8 C13.11,8 14,7.1 14,6 C14,4.9 13.11,4 12,4 C10.89,4 10,4.9 10,6 C10,7.1 10.9,8 12,8 L12,8 Z M6,9.2 C4.33,9.2 1,10.03 1,11.7 L1,13 L11,13 L11,11.7 C11,10.03 7.67,9.2 6,9.2 L6,9.2 Z M12,9.2 C11.75,9.2 11.46,9.22 11.16,9.26 C11.95,9.86 12.5,10.66 12.5,11.7 L12.5,13 L17,13 L17,11.7 C17,10.03 13.67,9.2 12,9.2 L12,9.2 Z" id="Shape" fill="#000000"></path>
            </g>
        </g>
    </g>
</svg>